…
    ## # A tibble: 1 × 7
    ##      id  date   prcp   snow   snwd    tmax    tmin
    ##   <int> <int>  <int>  <int>  <int>   <int>   <int>
    ## 1     0     0 145838 381221 591786 1134358 1134420

``` r
ny_noaa |> 
  count(snow) |> 
  arrange(desc(n))
```

    ## # A tibble: 282 × 2
    ##     snow       n
    ##    <int>   <int>
    ##  1     0 2008508
    ##  2    NA  381221
    ##  3    25   31022
    ##  4    13   23095
    ##  5    51   18274
    ##  6    76   10173
    ##  7     8    9962
    ##  8     5    9748
    ##  9    38    9197
    ## 10     3    8790
    ## # ℹ 272 more rows
…
